[
    {
        "airplane": {
            "name": "Boing 707-34",
            "maximumSpeed": 1000,
            "serviceCostPerKm": 100,
            "qualification": {
                "airplaneType": "Passenger",
                "maxFlightDistance": 10000,
                "capacity": 100
            }
        },
        "cost": 1000000,
        "offerType": "Purchase"
    },
    {
        "airplane": {
            "name": "Boing 707-34",
            "maximumSpeed": 1000,
            "serviceCostPerKm": 100,
            "qualification": {
                "airplaneType": "Passenger",
                "maxFlightDistance": 10000,
                "capacity": 100
            }
        },
        "cost": 1000,
        "offerType": "Rent"
    },
    {
        "airplane": {
            "name": "Boing 707-34",
            "maximumSpeed": 1000,
            "serviceCostPerKm": 100,
            "qualification": {
                "airplaneType": "Cargo",
                "maxFlightDistance": 10000,
                "capacity": 100
            }
        },
        "cost": 1000,
        "offerType": "Lising",
        "lisingPeriodInDays": 100
    }
]